<?xml version="1.0" encoding="UTF-8"?>
<svg width="63px" height="9px" viewBox="0 0 63 9" version="1.1" xmlns="http://www.w3.org/2000/svg" xmlns:xlink="http://www.w3.org/1999/xlink">
    <!-- Generator: Sketch 49.2 (51160) - http://www.bohemiancoding.com/sketch -->
    <title>next --&gt;</title>
    <desc>Created with Sketch.</desc>
    <defs></defs>
    <g id="180401-copy" stroke="none" stroke-width="1" fill="none" fill-rule="evenodd">
        <g id="03_記事詳細_sp" transform="translate(-292.000000, -2877.000000)">
            <g id="next---&gt;" transform="translate(292.000000, 2877.000000)">
                <g id="--&gt;" transform="translate(36.000000, 4.000000)" stroke="#000000" stroke-width="1.5">
                    <polyline id="Path-2" points="0 4 24.6194757 4 18.9680999 0"></polyline>
                </g>
                <path d="M7.4296875,9 L5.671875,9 L2.25,3.38671875 L2.25,9 L0.4921875,9 L0.4921875,0.46875 L2.25,0.46875 L5.67773438,6.09375 L5.67773438,0.46875 L7.4296875,0.46875 L7.4296875,9 Z M14.8476562,5.30273438 L11.4726562,5.30273438 L11.4726562,7.58789062 L15.4335938,7.58789062 L15.4335938,9 L9.71484375,9 L9.71484375,0.46875 L15.421875,0.46875 L15.421875,1.89257812 L11.4726562,1.89257812 L11.4726562,3.92578125 L14.8476562,3.92578125 L14.8476562,5.30273438 Z M20.2675781,3.41015625 L21.8671875,0.46875 L23.8886719,0.46875 L21.4042969,4.69921875 L23.953125,9 L21.9082031,9 L20.2675781,6.01171875 L18.6269531,9 L16.5820312,9 L19.1308594,4.69921875 L16.6464844,0.46875 L18.6679688,0.46875 L20.2675781,3.41015625 Z M32.0097656,1.89257812 L29.3964844,1.89257812 L29.3964844,9 L27.6386719,9 L27.6386719,1.89257812 L25.0605469,1.89257812 L25.0605469,0.46875 L32.0097656,0.46875 L32.0097656,1.89257812 Z" id="Next" fill="#000000" fill-rule="evenodd"></path>
            </g>
        </g>
    </g>
</svg>