<?xml version="1.0" encoding="utf-8"?>
<!-- Generator: Adobe Illustrator 21.1.0, SVG Export Plug-In . SVG Version: 6.00 Build 0)  -->
<svg version="1.1" id="レイヤー_1" xmlns="http://www.w3.org/2000/svg" xmlns:xlink="http://www.w3.org/1999/xlink" x="0px"
	 y="0px" viewBox="0 0 44 9" style="enable-background:new 0 0 44 9;" xml:space="preserve">
<style type="text/css">
	.st0{fill:none;stroke:#231815;stroke-width:1.5;}
</style>
<title>--&gt; WH Copy</title>
<desc>Created with Sketch.</desc>
<g id="Symbols">
	<g id="_x2D_-_x3E_-WH" transform="translate(0.000000, 1.000000)">
		<polyline id="Path-2" class="st0" points="0,7 41.4,7 31.9,0 		"/>
	</g>
</g>
</svg>
